{
    "name": "root",
    "gauges": {
        "Perro.Policy.Entropy.mean": {
            "value": -1.373183250427246,
            "min": -1.373183250427246,
            "max": 1.1876763105392456,
            "count": 7
        },
        "Perro.Policy.Entropy.sum": {
            "value": -13665.919921875,
            "min": -13665.919921875,
            "max": 12522.859375,
            "count": 7
        },
        "Perro.Environment.EpisodeLength.mean": {
            "value": 154.31147540983608,
            "min": 51.92696629213483,
            "max": 185.57142857142858,
            "count": 7
        },
        "Perro.Environment.EpisodeLength.sum": {
            "value": 9413.0,
            "min": 9243.0,
            "max": 10448.0,
            "count": 7
        },
        "Perro.Step.mean": {
            "value": 69999.0,
            "min": 9997.0,
            "max": 69999.0,
            "count": 7
        },
        "Perro.Step.sum": {
            "value": 69999.0,
            "min": 9997.0,
            "max": 69999.0,
            "count": 7
        },
        "Perro.Policy.ExtrinsicValueEstimate.mean": {
            "value": 0.022209106013178825,
            "min": -0.0009461659356020391,
            "max": 1.0265833139419556,
            "count": 7
        },
        "Perro.Policy.ExtrinsicValueEstimate.sum": {
            "value": 4.486239433288574,
            "min": -0.19017934799194336,
            "max": 268.96484375,
            "count": 7
        },
        "Perro.Policy.GailValueEstimate.mean": {
            "value": 25.895793914794922,
            "min": 10.209898948669434,
            "max": 31.694955825805664,
            "count": 7
        },
        "Perro.Policy.GailValueEstimate.sum": {
            "value": 5230.9501953125,
            "min": 2674.993408203125,
            "max": 6338.9912109375,
            "count": 7
        },
        "Perro.Environment.CumulativeReward.mean": {
            "value": -0.15,
            "min": -0.7528089887640449,
            "max": 0.09090909090909091,
            "count": 7
        },
        "Perro.Environment.CumulativeReward.sum": {
            "value": -9.0,
            "min": -134.0,
            "max": 5.0,
            "count": 7
        },
        "Perro.Policy.ExtrinsicReward.mean": {
            "value": 0.0,
            "min": 0.0,
            "max": 0.0,
            "count": 7
        },
        "Perro.Policy.ExtrinsicReward.sum": {
            "value": 0.0,
            "min": 0.0,
            "max": 0.0,
            "count": 7
        },
        "Perro.Policy.GailReward.mean": {
            "value": 53.77264371911685,
            "min": 17.90992948207795,
            "max": 65.88773483381821,
            "count": 7
        },
        "Perro.Policy.GailReward.sum": {
            "value": 3226.358623147011,
            "min": 3187.967447809875,
            "max": 3707.769990324974,
            "count": 7
        },
        "Perro.Losses.PolicyLoss.mean": {
            "value": 0.07010908764398967,
            "min": 0.04322864851403412,
            "max": 0.07010908764398967,
            "count": 7
        },
        "Perro.Losses.PolicyLoss.sum": {
            "value": 0.630981788795907,
            "min": 0.3890578366263071,
            "max": 0.630981788795907,
            "count": 7
        },
        "Perro.Losses.ValueLoss.mean": {
            "value": 17.749907270625783,
            "min": 11.031865110993387,
            "max": 25.625815316482825,
            "count": 7
        },
        "Perro.Losses.ValueLoss.sum": {
            "value": 159.74916543563205,
            "min": 103.15096143881479,
            "max": 230.63233784834543,
            "count": 7
        },
        "Perro.Policy.LearningRate.mean": {
            "value": 0.0002610861463046221,
            "min": 0.0002610861463046221,
            "max": 0.0002968150010616666,
            "count": 7
        },
        "Perro.Policy.LearningRate.sum": {
            "value": 0.0023497753167415992,
            "min": 0.0023497753167415992,
            "max": 0.0028504002498665995,
            "count": 7
        },
        "Perro.Policy.Epsilon.mean": {
            "value": 0.18702871111111113,
            "min": 0.18702871111111113,
            "max": 0.19893833333333333,
            "count": 7
        },
        "Perro.Policy.Epsilon.sum": {
            "value": 1.6832584000000002,
            "min": 1.6832584000000002,
            "max": 1.9501334000000001,
            "count": 7
        },
        "Perro.Policy.Beta.mean": {
            "value": 0.0005000000000000001,
            "min": 0.0005000000000000001,
            "max": 0.0005000000000000002,
            "count": 7
        },
        "Perro.Policy.Beta.sum": {
            "value": 0.004500000000000001,
            "min": 0.004500000000000001,
            "max": 0.005000000000000002,
            "count": 7
        },
        "Perro.Policy.GAILPolicyEstimate.mean": {
            "value": 0.47626343397078696,
            "min": 0.4748166871567568,
            "max": 0.50287540588114,
            "count": 7
        },
        "Perro.Policy.GAILPolicyEstimate.sum": {
            "value": 4.2863709057370825,
            "min": 4.2863709057370825,
            "max": 4.879255277415117,
            "count": 7
        },
        "Perro.Policy.GAILExpertEstimate.mean": {
            "value": 0.5837735936597542,
            "min": 0.5355760786268448,
            "max": 0.5884091764688492,
            "count": 7
        },
        "Perro.Policy.GAILExpertEstimate.sum": {
            "value": 5.253962342937788,
            "min": 4.8201847076416025,
            "max": 5.884091764688492,
            "count": 7
        },
        "Perro.Losses.GAILLoss.mean": {
            "value": 1.2444001778408333,
            "min": 1.237615981587657,
            "max": 1.3490898553971893,
            "count": 7
        },
        "Perro.Losses.GAILLoss.sum": {
            "value": 11.1996016005675,
            "min": 11.138543834288914,
            "max": 12.590079456567764,
            "count": 7
        },
        "Perro.Policy.GAILGradMagLoss.mean": {
            "value": 0.12879326498066937,
            "min": 0.11991633006061117,
            "max": 5.49705946555844,
            "count": 7
        },
        "Perro.Policy.GAILGradMagLoss.sum": {
            "value": 1.1591393848260243,
            "min": 1.1591393848260243,
            "max": 49.47353519002596,
            "count": 7
        },
        "Perro.Losses.PretrainingLoss.mean": {
            "value": 0.555360498768406,
            "min": 0.555360498768406,
            "max": 1.2025992871583335,
            "count": 7
        },
        "Perro.Losses.PretrainingLoss.sum": {
            "value": 4.998244488915653,
            "min": 4.998244488915653,
            "max": 10.823393584425002,
            "count": 7
        },
        "Perro.IsTraining.mean": {
            "value": 1.0,
            "min": 1.0,
            "max": 1.0,
            "count": 7
        },
        "Perro.IsTraining.sum": {
            "value": 1.0,
            "min": 1.0,
            "max": 1.0,
            "count": 7
        }
    },
    "metadata": {
        "timer_format_version": "0.1.0",
        "start_time_seconds": "1673621910",
        "python_version": "3.7.9 (tags/v3.7.9:13c94747c7, Aug 17 2020, 18:58:18) [MSC v.1900 64 bit (AMD64)]",
        "command_line_arguments": "D:\\pec-2-ia-main\\pec-2-ia-main\\PEC2\\venv\\Scripts\\mlagents-learn config/perro.yaml --run-id=PerroImitation2",
        "mlagents_version": "0.29.0",
        "mlagents_envs_version": "0.29.0",
        "communication_protocol_version": "1.5.0",
        "pytorch_version": "1.7.0+cu110",
        "numpy_version": "1.21.2",
        "end_time_seconds": "1673622553"
    },
    "total": 643.7932844000001,
    "count": 1,
    "self": 0.007730400000127702,
    "children": {
        "run_training.setup": {
            "total": 0.12232920000000003,
            "count": 1,
            "self": 0.12232920000000003
        },
        "TrainerController.start_learning": {
            "total": 643.6632248,
            "count": 1,
            "self": 0.1286739000028092,
            "children": {
                "TrainerController._reset_env": {
                    "total": 42.7190157,
                    "count": 1,
                    "self": 11.228679899999996,
                    "children": {
                        "demo_to_buffer": {
                            "total": 31.490335800000004,
                            "count": 2,
                            "self": 0.0005246000000020956,
                            "children": {
                                "load_demonstration": {
                                    "total": 0.3252547000000021,
                                    "count": 2,
                                    "self": 0.3227193000000046,
                                    "children": {
                                        "read_file": {
                                            "total": 0.002535399999997523,
                                            "count": 2,
                                            "self": 0.002535399999997523
                                        }
                                    }
                                },
                                "make_demo_buffer": {
                                    "total": 31.1645565,
                                    "count": 2,
                                    "self": 5.78731449999783,
                                    "children": {
                                        "steps_from_proto": {
                                            "total": 25.37724200000217,
                                            "count": 144472,
                                            "self": 18.823246500001957,
                                            "children": {
                                                "_process_rank_one_or_two_observation": {
                                                    "total": 6.553995500000214,
                                                    "count": 288944,
                                                    "self": 6.553995500000214
                                                }
                                            }
                                        }
                                    }
                                }
                            }
                        }
                    }
                },
                "TrainerController.advance": {
                    "total": 600.6306935999971,
                    "count": 4938,
                    "self": 0.13489460000209874,
                    "children": {
                        "env_step": {
                            "total": 192.08070239999586,
                            "count": 4938,
                            "self": 168.8968595999954,
                            "children": {
                                "SubprocessEnvManager._take_step": {
                                    "total": 23.108479499999596,
                                    "count": 4938,
                                    "self": 0.40270889999995063,
                                    "children": {
                                        "TorchPolicy.evaluate": {
                                            "total": 22.705770599999646,
                                            "count": 4517,
                                            "self": 10.563925600000125,
                                            "children": {
                                                "TorchPolicy.sample_actions": {
                                                    "total": 12.14184499999952,
                                                    "count": 4517,
                                                    "self": 12.14184499999952
                                                }
                                            }
                                        }
                                    }
                                },
                                "workers": {
                                    "total": 0.07536330000087332,
                                    "count": 4937,
                                    "self": 0.0,
                                    "children": {
                                        "worker_root": {
                                            "total": 570.9865659999996,
                                            "count": 4937,
                                            "is_parallel": true,
                                            "self": 473.2956724000004,
                                            "children": {
                                                "steps_from_proto": {
                                                    "total": 0.0008327999999995228,
                                                    "count": 1,
                                                    "is_parallel": true,
                                                    "self": 0.00047019999999875495,
                                                    "children": {
                                                        "_process_rank_one_or_two_observation": {
                                                            "total": 0.00036260000000076786,
                                                            "count": 2,
                                                            "is_parallel": true,
                                                            "self": 0.00036260000000076786
                                                        }
                                                    }
                                                },
                                                "UnityEnvironment.step": {
                                                    "total": 97.69006079999917,
                                                    "count": 4937,
                                                    "is_parallel": true,
                                                    "self": 0.7784331000018767,
                                                    "children": {
                                                        "UnityEnvironment._generate_step_input": {
                                                            "total": 1.3867286999983648,
                                                            "count": 4937,
                                                            "is_parallel": true,
                                                            "self": 1.3867286999983648
                                                        },
                                                        "communicator.exchange": {
                                                            "total": 93.38783099999974,
                                                            "count": 4937,
                                                            "is_parallel": true,
                                                            "self": 93.38783099999974
                                                        },
                                                        "steps_from_proto": {
                                                            "total": 2.1370679999992035,
                                                            "count": 4937,
                                                            "is_parallel": true,
                                                            "self": 1.177365799998384,
                                                            "children": {
                                                                "_process_rank_one_or_two_observation": {
                                                                    "total": 0.9597022000008195,
                                                                    "count": 9874,
                                                                    "is_parallel": true,
                                                                    "self": 0.9597022000008195
                                                                }
                                                            }
                                                        }
                                                    }
                                                }
                                            }
                                        }
                                    }
                                }
                            }
                        },
                        "trainer_advance": {
                            "total": 408.4150965999991,
                            "count": 4937,
                            "self": 0.21914209999829382,
                            "children": {
                                "process_trajectory": {
                                    "total": 11.798735100001068,
                                    "count": 4937,
                                    "self": 11.798735100001068
                                },
                                "_update_policy": {
                                    "total": 396.39721939999976,
                                    "count": 67,
                                    "self": 288.79930209999384,
                                    "children": {
                                        "TorchPPOOptimizer.update": {
                                            "total": 24.344583500000986,
                                            "count": 804,
                                            "self": 24.344583500000986
                                        },
                                        "TorchPolicy.sample_actions": {
                                            "total": 83.25333380000495,
                                            "count": 28341,
                                            "self": 83.25333380000495
                                        }
                                    }
                                }
                            }
                        }
                    }
                },
                "TrainerController._save_models": {
                    "total": 0.18484160000002703,
                    "count": 1,
                    "self": 0.010587000000100488,
                    "children": {
                        "RLTrainer._checkpoint": {
                            "total": 0.17425459999992654,
                            "count": 1,
                            "self": 0.17425459999992654
                        }
                    }
                }
            }
        }
    }
}