{
    "PizzaMan": {
        "checkpoints": [
            {
                "steps": 384,
                "file_path": "results\\Pizzero5\\PizzaMan\\PizzaMan-384.onnx",
                "reward": null,
                "creation_time": 1673797040.7351365,
                "auxillary_file_paths": [
                    "results\\Pizzero5\\PizzaMan\\PizzaMan-384.pt"
                ]
            }
        ],
        "final_checkpoint": {
            "steps": 384,
            "file_path": "results\\Pizzero5\\PizzaMan.onnx",
            "reward": null,
            "creation_time": 1673797040.7351365,
            "auxillary_file_paths": [
                "results\\Pizzero5\\PizzaMan\\PizzaMan-384.pt"
            ]
        }
    },
    "metadata": {
        "stats_format_version": "0.3.0",
        "mlagents_version": "0.29.0",
        "torch_version": "1.7.0+cu110"
    }
}